misc/RTL_Easy/sims/flag.vcd
$timescale 1 ps $end
$scope module uut $end
$var wire 1 ! clock $end
$scope module pulser $end
$var wire 1 " clock $end
$var wire 1 # enable $end
$var wire 1 $ pulse $end
$scope module strobe $end
$var wire 1 % enable $end
$var wire 1 & strobe $end
$var wire 1 ' clock $end
$var wire 32 ( threshold $end
$scope module counter $end
$var wire 32 ) d $end
$var wire 32 * q $end
$var wire 1 + clock $end
$upscope $end
$upscope $end
$scope module shot $end
$var wire 1 , trigger $end
$var wire 1 - active $end
$var wire 1 . clock $end
$var wire 1 / fired $end
$var wire 32 0 duration $end
$scope module counter $end
$var wire 32 1 d $end
$var wire 32 2 q $end
$var wire 1 3 clock $end
$upscope $end
$scope module state $end
$var wire 1 4 d $end
$var wire 1 5 q $end
$var wire 1 6 clock $end
$upscope $end
$upscope $end
$upscope $end
$var wire 8 7 din $end
$var wire 10 8 temp $end
$var wire 8 9 dout $end
$upscope $end
$enddefinitions $end
$dumpvars
0!
0"
1#
0$
1%
0&
0'
b00000101111101011110000100000000 (
b00000000000000000000000000000001 )
b00000000000000000000000000000000 *
0+
0,
0-
0.
0/
b00000001011111010111100001000000 0
b00000000000000000000000000000000 1
b00000000000000000000000000000000 2
03
04
05
06
b01010000 7
b0101001010 8
b01010010 9
$end
#50000000
1!
1"
1'
b00000000000000000000000000000010 )
b00000000000000000000000000000001 *
1+
1.
13
16
#50000000
#100000000
0!
0"
0'
0+
0.
03
06
#100000000
b01000011 7
b0100000110 8
b01000001 9
#150000000
1!
1"
1'
b00000000000000000000000000000011 )
b00000000000000000000000000000010 *
1+
1.
13
16
#150000000
#200000000
0!
0"
0'
0+
0.
03
06
#200000000
b01010100 7
b0101011010 8
b01010110 9
#250000000
1!
1"
1'
b00000000000000000000000000000100 )
b00000000000000000000000000000011 *
1+
1.
13
16
#250000000
#300000000
0!
0"
0'
0+
0.
03
06
#300000000
b01000110 7
b0100010010 8
b01000100 9
#350000000
1!
1"
1'
b00000000000000000000000000000101 )
b00000000000000000000000000000100 *
1+
1.
13
16
#350000000
#400000000
0!
0"
0'
0+
0.
03
06
#400000000
b01111011 7
b0111100110 8
b01111001 9
#450000000
1!
1"
1'
b00000000000000000000000000000110 )
b00000000000000000000000000000101 *
1+
1.
13
16
#450000000
#500000000
0!
0"
0'
0+
0.
03
06
#500000000
b01001000 7
b0100101010 8
b01001010 9
#550000000
1!
1"
1'
b00000000000000000000000000000111 )
b00000000000000000000000000000110 *
1+
1.
13
16
#550000000
#600000000
0!
0"
0'
0+
0.
03
06
#600000000
b01000000 7
b0100001010 8
b01000010 9
#650000000
1!
1"
1'
b00000000000000000000000000001000 )
b00000000000000000000000000000111 *
1+
1.
13
16
#650000000
#700000000
0!
0"
0'
0+
0.
03
06
#700000000
b01110010 7
b0111000010 8
b01110000 9
#750000000
1!
1"
1'
b00000000000000000000000000001001 )
b00000000000000000000000000001000 *
1+
1.
13
16
#750000000
#800000000
0!
0"
0'
0+
0.
03
06
#800000000
b01100100 7
b0110011010 8
b01100110 9
#850000000
1!
1"
1'
b00000000000000000000000000001010 )
b00000000000000000000000000001001 *
1+
1.
13
16
#850000000
#900000000
0!
0"
0'
0+
0.
03
06
#900000000
b01011111 7
b0101110110 8
b01011101 9
#950000000
1!
1"
1'
b00000000000000000000000000001011 )
b00000000000000000000000000001010 *
1+
1.
13
16
#950000000
#1000000000
0!
0"
0'
0+
0.
03
06
#1000000000
b01000101 7
b0100011110 8
b01000111 9
#1050000000
1!
1"
1'
b00000000000000000000000000001100 )
b00000000000000000000000000001011 *
1+
1.
13
16
#1050000000
#1100000000
0!
0"
0'
0+
0.
03
06
#1100000000
b01101110 7
b0110110010 8
b01101100 9
#1150000000
1!
1"
1'
b00000000000000000000000000001101 )
b00000000000000000000000000001100 *
1+
1.
13
16
#1150000000
#1200000000
0!
0"
0'
0+
0.
03
06
#1200000000
b01100011 7
b0110000110 8
b01100001 9
#1250000000
1!
1"
1'
b00000000000000000000000000001110 )
b00000000000000000000000000001101 *
1+
1.
13
16
#1250000000
#1300000000
0!
0"
0'
0+
0.
03
06
#1300000000
b01110010 7
b0111000010 8
b01110000 9
#1350000000
1!
1"
1'
b00000000000000000000000000001111 )
b00000000000000000000000000001110 *
1+
1.
13
16
#1350000000
#1400000000
0!
0"
0'
0+
0.
03
06
#1400000000
b01111001 7
b0111101110 8
b01111011 9
#1450000000
1!
1"
1'
b00000000000000000000000000010000 )
b00000000000000000000000000001111 *
1+
1.
13
16
#1450000000
#1500000000
0!
0"
0'
0+
0.
03
06
#1500000000
b01110000 7
b0111001010 8
b01110010 9
#1550000000
1!
1"
1'
b00000000000000000000000000010001 )
b00000000000000000000000000010000 *
1+
1.
13
16
#1550000000
#1600000000
0!
0"
0'
0+
0.
03
06
#1600000000
b01110100 7
b0111011010 8
b01110110 9
#1650000000
1!
1"
1'
b00000000000000000000000000010010 )
b00000000000000000000000000010001 *
1+
1.
13
16
#1650000000
#1700000000
0!
0"
0'
0+
0.
03
06
#1700000000
b01101001 7
b0110101110 8
b01101011 9
#1750000000
1!
1"
1'
b00000000000000000000000000010011 )
b00000000000000000000000000010010 *
1+
1.
13
16
#1750000000
#1800000000
0!
0"
0'
0+
0.
03
06
#1800000000
b01101111 7
b0110110110 8
b01101101 9
#1850000000
1!
1"
1'
b00000000000000000000000000010100 )
b00000000000000000000000000010011 *
1+
1.
13
16
#1850000000
#1900000000
0!
0"
0'
0+
0.
03
06
#1900000000
b01101110 7
b0110110010 8
b01101100 9
#1950000000
1!
1"
1'
b00000000000000000000000000010101 )
b00000000000000000000000000010100 *
1+
1.
13
16
#1950000000
#2000000000
0!
0"
0'
0+
0.
03
06
#2000000000
b01011111 7
b0101110110 8
b01011101 9
#2050000000
1!
1"
1'
b00000000000000000000000000010110 )
b00000000000000000000000000010101 *
1+
1.
13
16
#2050000000
#2100000000
0!
0"
0'
0+
0.
03
06
#2100000000
b01101001 7
b0110101110 8
b01101011 9
#2150000000
1!
1"
1'
b00000000000000000000000000010111 )
b00000000000000000000000000010110 *
1+
1.
13
16
#2150000000
#2200000000
0!
0"
0'
0+
0.
03
06
#2200000000
b01110011 7
b0111000110 8
b01110001 9
#2250000000
1!
1"
1'
b00000000000000000000000000011000 )
b00000000000000000000000000010111 *
1+
1.
13
16
#2250000000
#2300000000
0!
0"
0'
0+
0.
03
06
#2300000000
b01011111 7
b0101110110 8
b01011101 9
#2350000000
1!
1"
1'
b00000000000000000000000000011001 )
b00000000000000000000000000011000 *
1+
1.
13
16
#2350000000
#2400000000
0!
0"
0'
0+
0.
03
06
#2400000000
b00110011 7
b0011000110 8
b00110001 9
#2450000000
1!
1"
1'
b00000000000000000000000000011010 )
b00000000000000000000000000011001 *
1+
1.
13
16
#2450000000
#2500000000
0!
0"
0'
0+
0.
03
06
#2500000000
b01100001 7
b0110001110 8
b01100011 9
#2550000000
1!
1"
1'
b00000000000000000000000000011011 )
b00000000000000000000000000011010 *
1+
1.
13
16
#2550000000
#2600000000
0!
0"
0'
0+
0.
03
06
#2600000000
b01110011 7
b0111000110 8
b01110001 9
#2650000000
1!
1"
1'
b00000000000000000000000000011100 )
b00000000000000000000000000011011 *
1+
1.
13
16
#2650000000
#2700000000
0!
0"
0'
0+
0.
03
06
#2700000000
b01111001 7
b0111101110 8
b01111011 9
#2750000000
1!
1"
1'
b00000000000000000000000000011101 )
b00000000000000000000000000011100 *
1+
1.
13
16
#2750000000
#2800000000
0!
0"
0'
0+
0.
03
06
#2800000000
b01111101 7
b0111111110 8
b01111111 9
#2850000000
1!
1"
1'
b00000000000000000000000000011110 )
b00000000000000000000000000011101 *
1+
1.
13
16
